{
  "Cytoplasmic Protein": "Cytoplasmic Protein",
  "DNA / RNA": "DNA / RNA",
  "HIV-1 Integrase": "DNA / RNA",
  "HIV-1 replication": "Replication",
  "Lipid Bilayer": "Lipid Bilayer",
  "Membrane Protein": "Membrane Protein",
  "Virus entry": "Virus Entry",
  "gp120": "Surface Glycoprotein"
}